^F:\SKILLBOX 2КУРС\1.1\MIDDLE1\CONSOLEAPPLICATION1\DEBUG\CONSOLEAPPLICATION1.OBJ
E:\WINDOWS KITS\10\LIB\10.0.19041.0\UM\X86\KERNEL32.LIB
E:\WINDOWS KITS\10\LIB\10.0.19041.0\UM\X86\USER32.LIB
E:\WINDOWS KITS\10\LIB\10.0.19041.0\UM\X86\GDI32.LIB
E:\WINDOWS KITS\10\LIB\10.0.19041.0\UM\X86\WINSPOOL.LIB
E:\WINDOWS KITS\10\LIB\10.0.19041.0\UM\X86\COMDLG32.LIB
E:\WINDOWS KITS\10\LIB\10.0.19041.0\UM\X86\ADVAPI32.LIB
E:\WINDOWS KITS\10\LIB\10.0.19041.0\UM\X86\SHELL32.LIB
E:\WINDOWS KITS\10\LIB\10.0.19041.0\UM\X86\OLE32.LIB
E:\WINDOWS KITS\10\LIB\10.0.19041.0\UM\X86\OLEAUT32.LIB
E:\WINDOWS KITS\10\LIB\10.0.19041.0\UM\X86\UUID.LIB
E:\WINDOWS KITS\10\LIB\10.0.19041.0\UM\X86\ODBC32.LIB
E:\WINDOWS KITS\10\LIB\10.0.19041.0\UM\X86\ODBCCP32.LIB
E:\DW\VCPKG-MASTER\INSTALLED\X86-WINDOWS\DEBUG\LIB\USOCKETS.LIB
E:\DW\VCPKG-MASTER\INSTALLED\X86-WINDOWS\DEBUG\LIB\UV.LIB
E:\DW\VCPKG-MASTER\INSTALLED\X86-WINDOWS\DEBUG\LIB\ZLIBD.LIB
F:\SKILLBOX 2курс\1.1\MIDDLE1\CONSOLEAPPLICATION1\DEBUG\CONSOLEAPPLICATION1.OBJ
F:\SKILLBOX 2курс\1.1\MIDDLE1\CONSOLEAPPLICATION1\DEBUG\CONSOLEAPPLICATION1.ILK
C:\WINDOWS\SYSTEM32\TZRES.DLL
C:\WINDOWS\GLOBALIZATION\SORTING\SORTDEFAULT.NLS
H:\PROGRAM FILES (X86)\MICROSOFT VISUAL STUDIO\2019\COMMUNITY\VC\TOOLS\MSVC\14.29.30133\LIB\X86\MSVCPRTD.LIB
H:\PROGRAM FILES (X86)\MICROSOFT VISUAL STUDIO\2019\COMMUNITY\VC\TOOLS\MSVC\14.29.30133\LIB\X86\MSVCRTD.LIB
H:\PROGRAM FILES (X86)\MICROSOFT VISUAL STUDIO\2019\COMMUNITY\VC\TOOLS\MSVC\14.29.30133\LIB\X86\OLDNAMES.LIB
H:\PROGRAM FILES (X86)\MICROSOFT VISUAL STUDIO\2019\COMMUNITY\VC\TOOLS\MSVC\14.29.30133\LIB\X86\VCRUNTIMED.LIB
E:\WINDOWS KITS\10\LIB\10.0.19041.0\UCRT\X86\UCRTD.LIB
